<?xml version="1.0" encoding="UTF-8" standalone="no"?>
<!-- Created with Inkscape (http://www.inkscape.org/) -->

<svg
   xmlns:dc="http://purl.org/dc/elements/1.1/"
   xmlns:cc="http://creativecommons.org/ns#"
   xmlns:rdf="http://www.w3.org/1999/02/22-rdf-syntax-ns#"
   xmlns:svg="http://www.w3.org/2000/svg"
   xmlns="http://www.w3.org/2000/svg"
   xmlns:sodipodi="http://sodipodi.sourceforge.net/DTD/sodipodi-0.dtd"
   xmlns:inkscape="http://www.inkscape.org/namespaces/inkscape"
   width="43.912163mm"
   height="50.893219mm"
   viewBox="0 0 43.912163 50.893219"
   version="1.1"
   id="svg8"
   inkscape:version="0.92.3 (2405546, 2018-03-11)"
   sodipodi:docname="untools_logo.svg">
  <defs
     id="defs2" />
  <sodipodi:namedview
     id="base"
     pagecolor="#ffffff"
     bordercolor="#666666"
     borderopacity="1.0"
     inkscape:pageopacity="0.0"
     inkscape:pageshadow="2"
     inkscape:zoom="2"
     inkscape:cx="-43.967676"
     inkscape:cy="54.793208"
     inkscape:document-units="mm"
     inkscape:current-layer="g919"
     showgrid="true"
     inkscape:object-paths="true"
     showguides="false"
     inkscape:window-width="1920"
     inkscape:window-height="1057"
     inkscape:window-x="1912"
     inkscape:window-y="-8"
     inkscape:window-maximized="1"
     inkscape:object-nodes="true"
     inkscape:snap-intersection-paths="true"
     inkscape:snap-grids="false"
     inkscape:snap-to-guides="false"
     inkscape:snap-smooth-nodes="true"
     inkscape:snap-bbox="true"
     inkscape:snap-center="true">
    <inkscape:grid
       type="xygrid"
       id="grid4553"
       originx="-101.09285"
       originy="-217.32107" />
  </sodipodi:namedview>
  <metadata
     id="metadata5">
    <rdf:RDF>
      <cc:Work
         rdf:about="">
        <dc:format>image/svg+xml</dc:format>
        <dc:type
           rdf:resource="http://purl.org/dc/dcmitype/StillImage" />
        <dc:title />
      </cc:Work>
    </rdf:RDF>
  </metadata>
  <g
     inkscape:label="Layer 1"
     inkscape:groupmode="layer"
     id="layer1"
     style="display:inline"
     transform="translate(-101.09285,-28.785705)">
    <g
       id="g861"
       transform="matrix(1.0087981,0,0,1.0087981,12.984753,-21.053395)">
      <g
         id="g903"
         transform="matrix(-1.8497217,0,0,1,174.89083,-4.0309978)">
        <g
           id="g919"
           transform="translate(-26.656904,0.05461483)">
          <g
             id="g4757">
            <path
               inkscape:transform-center-x="2.1279043e-005"
               transform="matrix(-0.35818429,0,0,0.66499544,230.65872,-6.3607636)"
               d="m 470.25,163.51969 -30.96041,-17.875 0,-35.75 30.96041,-17.874999 30.96041,17.874999 0,35.75 z"
               inkscape:randomized="0"
               inkscape:rounded="0"
               inkscape:flatsided="true"
               sodipodi:arg2="2.0943951"
               sodipodi:arg1="1.5707963"
               sodipodi:r2="30.960407"
               sodipodi:r1="35.75"
               sodipodi:cy="127.76969"
               sodipodi:cx="470.25"
               sodipodi:sides="6"
               id="path4745"
               style="fill:#ffffff;fill-opacity:1;stroke:#4fd9ff;stroke-width:3.77952766;stroke-miterlimit:4;stroke-dasharray:none;stroke-opacity:1"
               sodipodi:type="star" />
            <g
               id="g4741">
              <text
                 xml:space="preserve"
                 style="font-style:normal;font-weight:normal;font-size:10.58333302px;line-height:1.25;font-family:sans-serif;letter-spacing:0px;word-spacing:0px;display:inline;fill:#000000;fill-opacity:1;stroke:none;stroke-width:0.26458332"
                 x="41.902447"
                 y="77.29261"
                 id="text12"
                 transform="matrix(-0.54062186,0,0,0.99999999,94.549807,4.0309978)"><tspan
                   sodipodi:role="line"
                   id="tspan10"
                   x="41.902447"
                   y="77.29261"
                   style="font-style:normal;font-variant:normal;font-weight:bold;font-stretch:normal;font-family:sans-serif;-inkscape-font-specification:'sans-serif Bold';stroke-width:0.26458332"><tspan
                     style="fill:#4fd9ff;fill-opacity:1"
                     id="tspan18">UN</tspan><tspan
                     style="font-size:6.3499999px;fill:#ff754f;fill-opacity:1"
                     id="tspan16">tools</tspan></tspan></text>
              <rect
                 style="display:inline;fill:#4fd9ff;fill-opacity:1;stroke-width:0.26420802"
                 id="rect4531"
                 width="14.628617"
                 height="1.9327915"
                 x="58.480137"
                 y="69.598389"
                 ry="0"
                 transform="matrix(-0.54062186,0,0,0.99999999,94.549807,4.0309978)" />
              <path
                 sodipodi:type="star"
                 style="display:inline;fill:#4fd9ff;fill-opacity:1;stroke-width:0.26458332"
                 id="path4551"
                 sodipodi:sides="3"
                 sodipodi:cx="73.300568"
                 sodipodi:cy="71.040405"
                 sodipodi:r1="2.634856"
                 sodipodi:r2="1.0538532"
                 sodipodi:arg1="0.0020612226"
                 sodipodi:arg2="1.0492588"
                 inkscape:flatsided="true"
                 inkscape:rounded="0"
                 inkscape:randomized="0"
                 d="m 75.935418,71.045836 -3.956979,2.273701 0.0094,-4.563695 z"
                 inkscape:transform-center-x="-0.52031967"
                 inkscape:transform-center-y="0.0041332161"
                 transform="matrix(-0.53750109,0,0,0.99999999,93.813197,3.5497983)" />
              <rect
                 ry="3.5217292e-015"
                 y="83.329369"
                 x="53.033607"
                 height="1.9327915"
                 width="16.264774"
                 id="rect4531-1"
                 style="display:inline;fill:#4fd9ff;fill-opacity:1;stroke-width:0.28404748" />
              <path
                 transform="matrix(0.53750181,0,0,0.99999999,30.597645,13.249781)"
                 inkscape:transform-center-y="0.0041332161"
                 inkscape:transform-center-x="-0.28129683"
                 d="m 75.935418,71.045836 -3.956979,2.273701 0.0094,-4.563695 z"
                 inkscape:randomized="0"
                 inkscape:rounded="0"
                 inkscape:flatsided="true"
                 sodipodi:arg2="1.0492588"
                 sodipodi:arg1="0.0020612226"
                 sodipodi:r2="1.0538532"
                 sodipodi:r1="2.634856"
                 sodipodi:cy="71.040405"
                 sodipodi:cx="73.300568"
                 sodipodi:sides="3"
                 id="path4551-8"
                 style="display:inline;fill:#4fd9ff;fill-opacity:1;stroke-width:0.26458332"
                 sodipodi:type="star" />
            </g>
          </g>
        </g>
      </g>
    </g>
  </g>
</svg>
